R 병렬 프로그래밍
…
$`Korea, Rep.`
  r.squared adj.r.squared    sigma statistic      p.value df    logLik
1  0.987651     0.9864161 1.174243  799.7828 7.104026e-11  2 -17.86081
       AIC      BIC deviance df.residual
1 41.72163 43.17635 13.78846          10

4.4. 데이터 원복

nest()로 만든 중첩 데이터프레임을 unnest() 함수로 중첩 데이터프레임을 풀어서 원복시킨다.

## 2.5. unnest 원복 -----------------

unnest(by_country, data)    

# A tibble: 1,704 x 7
   continent     country       rsq  year lifeExp      pop gdpPercap
      <fctr>      <fctr>     <dbl> <int>   <dbl>    <int>     <dbl>
 1      Asia Afghanistan 0.9477123  1952  28.801  8425333  779.4453
 2      Asia Afghanistan 0.9477123  1957  30.332  9240934  820.8530
 3      Asia Afghanistan 0.9477123  1962  31.997 10267083  853.1007
 4      Asia Afghanistan 0.9477123  1967  34.020 11537966  836.1971
 5      Asia Afghanistan 0.9477123  1972  36.088 13079460  739.9811
 6      Asia Afghanistan 0.9477123  1977  38.438 14880372  786.1134
 7      Asia Afghanistan 0.9477123  1982  39.854 12881816  978.0114
 8      Asia Afghanistan 0.9477123  1987  40.822 13867957  852.3959
 9      Asia Afghanistan 0.9477123  1992  41.674 16317921  649.3414
10      Asia Afghanistan 0.9477123  1997  41.763 22227415  635.3414
# ... with 1,694 more rows

unnest(by_country, tidy)

# A tibble: 284 x 8
   continent     country       rsq        term      estimate    std.error
      <fctr>      <fctr>     <dbl>       <chr>         <dbl>        <dbl>
 1      Asia Afghanistan 0.9477123 (Intercept)  -507.5342716 40.484161954
 2      Asia Afghanistan 0.9477123        year     0.2753287  0.020450934
 3    Europe     Albania 0.9105778 (Intercept)  -594.0725110 65.655359062
 4    Europe     Albania 0.9105778        year     0.3346832  0.033166387
 5    Africa     Algeria 0.9851172 (Intercept) -1067.8590396 43.802200843
 6    Africa     Algeria 0.9851172        year     0.5692797  0.022127070
 7    Africa      Angola 0.8878146 (Intercept)  -376.5047531 46.583370599
 8    Africa      Angola 0.8878146        year     0.2093399  0.023532003
 9  Americas   Argentina 0.9955681 (Intercept)  -389.6063445  9.677729641
10  Americas   Argentina 0.9955681        year     0.2317084  0.004888791
# ... with 274 more rows, and 2 more variables: statistic <dbl>,
#   p.value <dbl>

unnest(by_country, glance, .drop = TRUE)    

# A tibble: 142 x 14
   continent     country       rsq r.squared adj.r.squared     sigma
      <fctr>      <fctr>     <dbl>     <dbl>         <dbl>     <dbl>
 1      Asia Afghanistan 0.9477123 0.9477123     0.9424835 1.2227880
 2    Europe     Albania 0.9105778 0.9105778     0.9016355 1.9830615
 3    Africa     Algeria 0.9851172 0.9851172     0.9836289 1.3230064
 4    Africa      Angola 0.8878146 0.8878146     0.8765961 1.4070091
 5  Americas   Argentina 0.9955681 0.9955681     0.9951249 0.2923072
 6   Oceania   Australia 0.9796477 0.9796477     0.9776125 0.6206086
 7    Europe     Austria 0.9921340 0.9921340     0.9913474 0.4074094
 8      Asia     Bahrain 0.9667398 0.9667398     0.9634138 1.6395865
 9      Asia  Bangladesh 0.9893609 0.9893609     0.9882970 0.9766908
10    Europe     Belgium 0.9945406 0.9945406     0.9939946 0.2929025
# ... with 132 more rows, and 8 more variables: statistic <dbl>,
#   p.value <dbl>, df <int>, logLik <dbl>, AIC <dbl>, BIC <dbl>,
#   deviance <dbl>, df.residual <int>
…
