Software Carpentry: 데이터 과학
…
1.6. 데이터프레임 출력

지금까지 map() 함수에 [ 연산을 활용하여 원하는 리스트 내부 원소를 뽑아내는 것을 살펴봤는데, 리스트 내부 원소를 뽑아내는 구문을 간결하게 작성하는 방법은 터특했지만, 여전히 반환결과는 리스트다. 반환된 리스트를 추가작업을 통해 데이터프레임으로 변환하는 것도 가능하지만, 한방에 다음 데이터분석작업까지 일관되게 처리하는 방법은 무엇일까?

map_df()를 사용하면 이 문제가 일거에 해결된다.

map_df(got_chars, extract, c("name", "culture", "gender", "id", "born", "alive"))

#> # A tibble: 29 × 6
#>                  name  culture gender    id
#>                 <chr>    <chr>  <chr> <int>
#> 1       Theon Greyjoy Ironborn   Male  1022
#> 2    Tyrion Lannister            Male  1052
#> 3   Victarion Greyjoy Ironborn   Male  1074
#> 4                Will            Male  1109
#> 5          Areo Hotah Norvoshi   Male  1166
#> 6               Chett            Male  1267
#> 7             Cressen            Male  1295
#> 8     Arianne Martell  Dornish Female   130
#> 9  Daenerys Targaryen Valyrian Female  1303
#> 10     Davos Seaworth Westeros   Male  1319
#> # ... with 19 more rows, and 2 more variables: born <chr>, alive <lgl>
데이터프레임으로 불러와서 작업을 할 때 항상 자료형과 변수명에 대해서 사전에 충분한 작업을 수행하는 것이 필요하다. 기억할 점은 . 은 파이프 연산에 앞선 입력값으로 got_chars가 되고, { 괄호는 tibble 자료형에 got_chars 객체가 데이터프레임 첫번째 변수로 list-column 형태로 저장되는 것을 방지한다.

library(tibble)
got_chars %>% {
  tibble(
       name = map_chr(., "name"),
    culture = map_chr(., "culture"),
     gender = map_chr(., "gender"),       
         id = map_int(., "id"),
       born = map_chr(., "born"),
      alive = map_lgl(., "alive")
  )
} 

#> # A tibble: 29 × 6
#>                  name  culture gender    id
#>                 <chr>    <chr>  <chr> <int>
#> 1       Theon Greyjoy Ironborn   Male  1022
#> 2    Tyrion Lannister            Male  1052
#> 3   Victarion Greyjoy Ironborn   Male  1074
#> 4                Will            Male  1109
#> 5          Areo Hotah Norvoshi   Male  1166
#> 6               Chett            Male  1267
#> 7             Cressen            Male  1295
#> 8     Arianne Martell  Dornish Female   130
#> 9  Daenerys Targaryen Valyrian Female  1303
#> 10     Davos Seaworth Westeros   Male  1319
#> # ... with 19 more rows, and 2 more variables: born <chr>, alive <lgl>
…
